{
  "version": 1,
  "size": { "x": 32, "y": 32 },
  "license": "CC-BY-SA-3.0",
  "copyright": "Taken from tgstation at https://github.com/tgstation/tgstation/commit/faf6db214927874c19b8fa8585d26b5d40de1acc",
  "states": [
    { "name": "CR20" },
    { "name": "EMAG" },
    { "name": "Emeele" },
    { "name": "treatment" },
    { "name": "synd_engineer" },
    { "name": "synd_sec" },
    { "name": "synd_medical" }
  ]
}
